<?xml version="1.0" encoding="utf-8"?>
<!-- Generator: Adobe Illustrator 14.0.0, SVG Export Plug-In . SVG Version: 6.00 Build 43363)  -->
<!DOCTYPE svg PUBLIC "-//W3C//DTD SVG 1.1//EN" "http://www.w3.org/Graphics/SVG/1.1/DTD/svg11.dtd">
<svg version="1.1" id="Layer_1" xmlns="http://www.w3.org/2000/svg" xmlns:xlink="http://www.w3.org/1999/xlink" x="0px" y="0px"
	 width="800px" height="600px" viewBox="0 0 800 600" enable-background="new 0 0 800 600" xml:space="preserve">
<g>
	<g>
		<path fill="#F2D7EE" d="M699.878,161.989C697.376,84.121,564.072,21.362,399.969,21.362C234.301,21.362,100,85.32,100,164.218
			c0,1.254,0.036,123.087,0.036,123.087c0,47.448,39.849,90.256,110.472,118.971c1.132,0.461,8.861,2.389,11.965-5.048
			c1.954-4.68-0.35-10.055-5.048-11.965c-63.348-25.757-99.68-63.238-99.68-102.833v-73.711
			c41.7,55.021,152.311,94.352,282.223,94.352c128.93,0,238.848-38.738,281.264-93.107l0.403,75.183
			c0,65.824-104.295,120.727-241.614,130.631c-9.372-5.067-19.805-8.407-30.872-9.609v-12.222
			c15.066-4.055,26.193-17.829,26.193-34.16c0-19.507-15.87-35.376-35.376-35.376c-19.506,0-35.376,15.87-35.376,35.376
			c0,16.331,11.126,30.105,26.193,34.16v12.222c-11.029,1.197-21.424,4.52-30.77,9.558c-37.403-2.794-77.047-9.28-108.782-18.684
			c-4.861-1.441-9.973,1.334-11.414,6.196c-1.442,4.863,1.333,9.973,6.195,11.414c28.604,8.475,59.615,14.405,92.401,17.709
			c-14.208,15.123-22.936,35.449-22.936,57.789c0,46.588,37.902,84.487,84.488,84.487c46.585,0,84.488-37.901,84.488-84.487
			c0-22.287-8.689-42.573-22.84-57.686c63.855-6.258,121.437-22.422,163.657-46.128c48.188-27.057,74.727-62.993,74.727-101.238
			C700.001,289.099,699.916,162.298,699.878,161.989z M660.463,208.587c-42.593-32.586-110.431-56.245-187.789-65.273
			c-5.018-0.589-9.598,3.017-10.186,8.057c-0.588,5.037,3.019,9.597,8.057,10.185c72.677,8.481,136.15,30.077,176.276,59.726
			c-11.765,9.557-26.325,18.552-43.045,26.514c-54.116,25.772-126.496,39.965-203.807,39.965c-77.31,0-149.69-14.193-203.806-39.965
			c-16.713-7.958-31.267-16.949-43.029-26.502c47.146-34.85,125.895-58.19,213.381-62.884c5.063-0.272,8.948-4.598,8.677-9.662
			c-0.272-5.064-4.587-8.959-9.662-8.677c-92.558,4.965-176.307,30.449-226.061,68.513c-0.489-0.527-20.159-14.385-20.159-44.366
			c0-14.417,6.292-28.811,18.7-42.782c13.194-14.857,33.302-28.964,58.151-40.796c54.115-25.772,126.496-39.965,203.806-39.965
			c77.31,0,149.69,14.193,203.806,39.965c24.848,11.833,44.956,25.94,58.151,40.796c12.409,13.971,18.699,28.365,18.699,42.782
			C680.625,190.928,660.953,208.059,660.463,208.587z M382.958,363.787c0-9.38,7.63-17.01,17.01-17.01s17.011,7.63,17.011,17.01
			s-7.63,17.01-17.011,17.01C390.589,380.797,382.958,373.166,382.958,363.787z M466.092,494.149
			c0,36.46-29.662,66.122-66.123,66.122c-36.46,0-66.122-29.663-66.122-66.122c0-36.46,29.662-66.122,66.122-66.122
			C436.43,428.027,466.092,457.688,466.092,494.149z"/>
	</g>
</g>
<g>
	<g>
		<path fill="#F2D7EE" d="M436.795,140.204c-12.129-0.697-24.519-1.05-36.827-1.05c-5.072,0-9.183,4.111-9.183,9.183
			c0,5.072,4.111,9.183,9.183,9.183c11.959,0,23.994,0.343,35.772,1.02c0.18,0.009,0.357,0.015,0.537,0.015
			c4.83,0,8.879-3.772,9.158-8.657C445.728,144.834,441.858,140.494,436.795,140.204z"/>
	</g>
</g>
<g>
	<g>
		<path fill="#F2D7EE" d="M399.969,453.316c-22.515,0-40.833,18.317-40.833,40.833c0,22.515,18.317,40.832,40.833,40.832
			c22.517,0,40.834-18.317,40.834-40.832C440.803,471.634,422.484,453.316,399.969,453.316z M399.969,516.616
			c-12.388,0-22.467-10.079-22.467-22.467c0-12.389,10.079-22.468,22.467-22.468s22.469,10.079,22.469,22.468
			C422.438,506.537,412.356,516.616,399.969,516.616z"/>
	</g>
</g>
<g>
	<g>
		<path fill="#F2D7EE" d="M663.199,278.193c-5.072,0-9.183,4.111-9.183,9.183c0,7.778-4.342,16.682-12.558,25.752
			c-10.844,11.976-27.832,23.666-49.13,33.809c-4.58,2.181-6.523,7.661-4.343,12.239c1.573,3.305,4.864,5.237,8.297,5.237
			c1.323,0,2.667-0.288,3.942-0.895c23.441-11.164,42.407-24.326,54.846-38.062c11.485-12.682,17.31-25.494,17.31-38.08
			C672.383,282.305,668.272,278.193,663.199,278.193z"/>
	</g>
</g>
<g>
	<g>
		<path fill="#F2D7EE" d="M565.288,368.057c-1.56-4.826-6.743-7.468-11.563-5.91c-14.213,4.599-29.469,8.562-45.343,11.779
			c-4.97,1.007-8.183,5.853-7.175,10.824c0.883,4.354,4.713,7.36,8.991,7.36c0.604,0,1.219-0.06,1.833-0.187
			c16.549-3.354,32.477-7.494,47.347-12.305C564.203,378.059,566.849,372.882,565.288,368.057z"/>
	</g>
</g>
</svg>
